####################################
#Made by Professional Street Mugger#
####################################

kumarkand_incident_slot_1 = {
	slot = 1
	generic = no
	ai = yes
	has_country_shield = yes
	potential = {
		tag  = F30  
		NOT = { is_incident_happened = incident_whisper_shadows }
	}
	has_country_shield = yes
	
	F30_sunriders_ride = {
		icon = mam_refine_the_furusiyya
		required_missions = { F30_talk_whispers }
		position = 2
		
		provinces_to_highlight = { 
			province_id = 591
			NOT = { cavalry_in_province = 4 }
			province_id = 614
		}
		
		trigger = {
			591 = {
				AND = {
					cavalry_in_province = 4
					base_manpower = 5
				}
			}
			has_spy_network_in = {
					who = F42
					value = 30
			}
		}
		
		effect = {
			591 = {
				kill_units = {
					who = owner
					type = cavalry
					amount = 6
				}
			}
			add_spy_network_in = {
					who = F42
					value = -30
				}
			unlock_merc_company = {
				merc_company = merc_sarraka
				free_merc = yes
			}
			custom_tooltip = F30_sarraka_info_one_tt
			hidden_effect = {
				set_saved_name = {
					key = F30_sarraka_war_wizard
					type = simple
					name = "Sarraka Commander"
				}
				country_event = { 
					id = flavor_kumarkand.6
					days = 730
				} 
			}
		}
	}
	
	F30_rumour_spiral = {
		icon = mission_assassination
		required_missions = { F30_sunriders_ride F30_wise_king }
		position = 3
		
		
		trigger = {
			OR = {
				AND = {
					has_ruler = "Serakh II"
					custom_trigger_tooltip = {
					tooltip =  F30_leader_tt
					had_country_flag = {
						flag = kumarkand_ruler_start
						days =  1460
						}
					}
				}
				NOT = { has_ruler = "Serakh II"}
				}
			stability = 1
			legitimacy = 90
		}
		
		effect = {
			if = {
				limit = {
					has_ruler = "Serakh II"
				}
				
				country_event = { 
					id = flavor_kumarkand.8
				}
			}
			else = {
				country_event = { 
					id =  flavor_kumarkand.10
				}
			}
		}
	}
}
	
kumarkand_incident_slot_2 = {
	slot = 2
	generic = no
	ai = yes
	has_country_shield = yes
	potential = {
		tag  = F30  
		NOT = { is_incident_happened = incident_whisper_shadows }
	}
	has_country_shield = yes
	
	F30_talk_whispers = {
		icon = mission_whisper
		required_missions = { }
		position = 1
		
		trigger = {
			estate_loyalty = {
				estate = estate_nobles
				loyalty = 60
			}
			estate_influence = {
				estate = estate_nobles
				influence = 30
			}
			diplomatic_reputation = 2
		}
		
		effect = {
			add_country_modifier = {
				name = F30_noble_support
				duration = 5475
			}
		}
	}
	
	F30_wise_king = {
		icon = mission_thinking_king
		required_missions = { F30_talk_whispers }
		position = 2
		
		provinces_to_highlight = { 
			province_id = 561
		}
		
		trigger = {
			exists = F37
			F37 = {
				OR = {
					has_opinion = { who = ROOT value = 100 }
					has_80_opinion_improved_relation = { target = ROOT }
				}
			}
			dip_power = 50
			OR = {	
			has_estate_privilege = estate_church_religious_diplomats
				OR = {
					advisor = inquisitor
					advisor = theologian
				}
			}
		}
		
		effect = {
			custom_tooltip = nsc_much_chosen_role_up_tt
			add_incident_variable_value = { incident = incident_whisper_shadows value = 1 }
			add_dip_power = -50
			F37 = { 
				country_event = { 
					id = flavor_kumarkand.1
					days = 1 
				} 
			}
			custom_tooltip = F30_if_war_accept_tt
			custom_tooltip = F30_if_irrliam_varamahr_tt
		}	
	}
	
	F30_manor_lords = {
		icon = mission_monarch_diplomacy
		required_missions = { F30_wise_king  }
		position = 3
		
		provinces_to_highlight = { 
			province_id = 625
		}
		
		trigger = {
			NOT = { mission_completed = F30_tactics_rebellion }
			exists = F25
			F25 = {
				OR = {
					has_opinion = { who = ROOT value = 100 }
					has_80_opinion_improved_relation = { target = ROOT }
				}
			}
			OR = {
				employed_advisor = {
					category = MIL
				}
				estate_loyalty = {
					estate = estate_church
					loyalty = 60
				}
			}
		}
		
		effect = {
			custom_tooltip = nsc_much_chosen_role_up_tt
			add_incident_variable_value = { incident = incident_whisper_shadows value = 2 }
			add_country_modifier = {
				name = F30_ashen_guidance
				duration = 3650
			}
		}
	}
}

kumarkand_incident_slot_3 = {
	slot = 3
	generic = no
	ai = yes
	has_country_shield = yes
	potential = {
		tag  = F30  
		NOT = { is_incident_happened = incident_whisper_shadows }
	}
	has_country_shield = yes
	
	#The Younger Brother
	F30_younger_brother = {
		icon = mission_protect_granada
		required_missions = { F30_talk_whispers F30_balance_checks }
		position = 2
		
		provinces_to_highlight = { 
			province_id = 616
		}
		
		trigger = {
			exists = F33
			F33 = {
				OR = {
					has_opinion = { who = ROOT value = 100 }
					has_80_opinion_improved_relation = { target = ROOT }
				}
			}
			mil_power = 70
			manpower = 5
		}
		
		effect = {
			add_mil_power = -70
			F33 = { 
				country_event = { 
					id = flavor_kumarkand.3
					days = 1 
				} 
			}
			custom_tooltip = F30_if_war_accept_tt
		}
	}

	F30_just_cause = {
		icon = mission_approach_throne
		required_missions = { }
		position = 3
		
		trigger = {
			mission_completed = F30_sunriders_ride
			calc_true_if = {
				OR = {
					NOT = { exists = F37 }
					mission_completed = F30_wise_king
				}
				OR = {
					NOT = { exists = F33 }
					mission_completed = F30_younger_brother
				}
				OR = {
					NOT = { exists = F39 }
					mission_completed = F30_bulwari_business
				}
				amount = 2
			}
		}
		
		effect = {
			hidden_effect = {
				if = {
					limit = {
						F37 = {
							alliance_with = F42
						}
					}
					F37 = {
						break_alliance = F42
					}
					add_country_modifier = {
						name = F30_taelarois_army
						duration = 1825
					}
				}
			}
			if = { 
				limit = { 
					exists = F42
				}
				declare_war_with_cb = {
					who = F42
					casus_belli = cb_independence_war
				}
				every_known_country = {
					limit = { has_country_flag = kumarkand_plotters }
					join_all_offensive_wars_of = F30
				}
				custom_tooltip = nsc_chosen_role_down_tt
				add_incident_variable_value = { incident = incident_whisper_shadows value = -1 }
			}
		}
	}
	F30_kumarkandi_dawn = {
		icon = mission_new_dawn
		required_missions = { F30_just_cause }
		position = 3
		
		provinces_to_highlight = { 
			AND = {
				area = traz_buranun_area
				NOT = { controlled_by = ROOT }
			}
		}
		
		trigger = {
			if = {
				limit = { exists = F42 }
				war_score_against = { who = F42 value = 90 }
				OR = {
					F42 = {
						capital_scope = {
							num_of_units_in_province = {
								who = ROOT
								amount = 10
							}
						}
					}
					614 = {
						OR = {
							controlled_by = F30
							owned_by = F30
						}
					}
				}
			}
			else = { NOT = { exists = F42 } }
		}
		
		effect = {
			tooltip = {
				end_incident = incident_whisper_shadows
			}
			country_event = { id = flavor_kumarkand.11 }
		}
	}
}

kumarkand_incident_slot_4 = {
	slot = 4
	generic = no
	ai = yes
	has_country_shield = yes
	potential = {
		tag  = F30  
		NOT = { is_incident_happened = incident_whisper_shadows }
	}
	has_country_shield = yes
	

	F30_balance_checks = {
		icon = mission_diplomacy_missive
		required_missions = { }
		position = 1
		
		trigger = {
			OR = {
				estate_loyalty = {
					estate = estate_burghers
					loyalty = 60
				}
				advisor = trader
			}
			employed_advisor = {
				category = ADM
			}
		}
		
		effect = {
			add_country_modifier = {
				name = F30_unreported_profits
				duration = 5475
			}
			hidden_effect = { 
				country_event = { 
					id = flavor_kumarkand.5
					days = 730
				} 
			}
		}
	}
	
	#Bulwari Business
	F30_bulwari_business = {
		icon = mission_fatimid_caliphate
		required_missions = { F30_balance_checks }
		position = 2
		
		provinces_to_highlight = { 
			province_id = 601
		}
		
		trigger = {
			exists = F39
			F39 = {
				OR = {
					has_opinion = { who = ROOT value = 100 }
					has_80_opinion_improved_relation = { target = ROOT }
				}
			}
			adm_power = 50
			603 = {
				num_of_units_in_province = {
					who = ROOT
					amount = 3
				}
			}
		}
		
		effect = {
			custom_tooltip = nsc_chosen_role_down_tt
			add_incident_variable_value = { incident = incident_whisper_shadows value = -1 }
			add_adm_power = -50
			F39 = { 
				country_event = { 
					id = flavor_kumarkand.2
					days = 1 
				} 
			}
			custom_tooltip = F30_if_war_accept_tt
		}
	}
	
	F30_tactics_rebellion = {
		icon = mission_reclaim_morocco
		required_missions = { F30_bulwari_business }
		position = 3
		
		provinces_to_highlight = { 
			province_id =550
		}
		
		trigger = {
			NOT = { mission_completed = F30_manor_lords }
			exists = F22
			F22 = {
				OR = {
					has_opinion = { who = ROOT value = 100 }
					has_80_opinion_improved_relation = { target = ROOT }
				}
			}
			OR = {
				550 = {
					owner = {
						has_opinion_modifier = {
							modifier = sent_gift
							who = ROOT
						}
					}
				}
				F21 = {
					OR = {
						has_opinion_modifier = {
							who = ROOT
							modifier = insulted
						}
						has_opinion_modifier = {
							who = ROOT
							modifier = scornfully_insulted
						}
					}
				} 	
			}
		}
		
		effect = {
			custom_tooltip = nsc_chosen_role_down_tt
			add_incident_variable_value = { incident = incident_whisper_shadows value = -2 }
			add_country_modifier = {
				name = F30_rebellion_tactics
				duration = 3650
			}
		}
	}

}

kumarkand_incident_slot_5 = {
	slot = 5
	generic = no
	ai = yes
	has_country_shield = yes
	potential = {
		tag  = F30  
		NOT = { is_incident_happened = incident_whisper_shadows }
	}
	has_country_shield = yes

	F30_rangers_call = {
		icon = mam_arabia
		required_missions = { F30_balance_checks }
		position = 2
		
		trigger = {
			crown_land_share = 5
			estate_loyalty = {
				estate = estate_adventurers
				loyalty = 50
			}
			estate_influence = {
				estate = estate_adventurers
				influence = 25
			}
		}
		
		effect = {
			change_estate_land_share = {
				estate = estate_adventurers
				share = 5
			}
			add_country_modifier = {
				name = F30_rangers_on_call
				duration = 7300
			}
		}
	}
	
	F30_having_blast = {
		icon = per_create_the_tupchi
		required_missions = { F30_bulwari_business F30_rangers_call  }
		position = 3
		
		provinces_to_highlight = { 
			OR = {
				AND = {
					is_capital = yes
					owner = { culture_group = dwarven }
				}
				AND = {
					province_id = 591
					NOT = { has_trade_building_trigger = yes }
				}
			}
		}
		
		trigger = {
			any_known_country = {
				has_country_modifier = dwarven_administration
				has_opinion = { who = ROOT value = 50}
			}
			OR = {
				treasury = 125
				591 = { has_trade_building_trigger = yes }
			}
		}
		
		effect = {
			if = {
				limit = { NOT = { 591 = { has_trade_building_trigger = yes }}}
				add_treasury = -125
			}
			add_country_modifier = {
				name = F30_having_a_blast
				duration = 3650
			}
		}
	}
}

kumarkand_slot_1 = {
	slot = 1
	generic = no
	ai = yes
	potential = {
		OR = {
			tag = F30 
			AND = {
				tag = F52 #Surakes
				was_tag = F30 
			}
		}
		is_incident_happened = incident_whisper_shadows
	}
	has_country_shield = yes
	
	F30_harpy_skies = {
		icon = mission_arabian_fort
		required_missions = { F30_marching_coin }
		position = 2

		provinces_to_highlight = {
			OR = {
				AND = {
					province_id = 591
					NOT = {province_has_current_tech_fort_trigger = yes}
				}
				AND = {
                    is_capital = yes
                    owned_by = F81
                    NOT = { owner = { is_subject = yes } }
                }
				AND = {
                    is_capital = yes
                    owned_by = F27
                    NOT = { owner = { is_subject = yes } }
                }
				AND = {
                    is_capital = yes
                    owned_by = F80
                    NOT = { owner = { is_subject = yes } }
                }
			}
		}
		
		trigger = {
			591 = {
				province_has_current_tech_fort_trigger = yes
			}
			if = {
				limit = { has_dlc = "Mandate of Heaven" }
				kumarkand_area = { 
					has_state_edict = edict_defensive_edict 
				}
				traz_buranun_area = {
					has_state_edict = edict_defensive_edict
				}
			}	
			OR = {
				custom_trigger_tooltip = {
				tooltip = F30_harpy_spy_tt
					any_known_country = {
						culture = firanyan_harpy 
						has_spy_network_from = {
							who = F30
							value = 30
						}
					}
				}
				custom_trigger_tooltip = {
				tooltip = F30_harpy_friend_tt
					AND = {
						F80 = { is_subject_of = F27 }
						F80 = {
							OR = {
								has_opinion = { who = ROOT value = 100 }
								has_80_opinion_improved_relation = { target = ROOT }
							}
						}	
						diplomatic_reputation = 2
						OR = {
							advisor = statesman
							advisor = diplomat
						}
					}
				}
				custom_trigger_tooltip = {
				tooltip = F30_harpy_free_tt
					AND = {
						NOT = { F80 = { is_subject_of = F27 } }
						F80 = {
							OR = {
								has_opinion = { who = ROOT value = 150 }
								has_100_opinion_improved_relation = { target = ROOT }
							}
						}	
						diplomatic_reputation = 3
						OR = {
							advisor = statesman
							advisor = diplomat
						}
					}
				}
				custom_trigger_tooltip = {
                    tooltip = F30_no_harpy_tt
                    AND = { 
                        NOT = { exists = F81 }
                        NOT = { exists = F27 }
                        NOT = { exists = F80 }
                    }
                }
			}
		}
		
		effect = {
			if = {
				limit = {
					F80 = { is_subject_of = F27 }
					F80 = {
						OR = {
							has_opinion = { who = ROOT value = 100 }
							has_80_opinion_improved_relation = { target = ROOT }
						}
					}
				}
				F80 = { 
					country_event = { 
						id = flavor_kumarkand.21
						days = 30
					} 
				}
			}
			if = {
				limit = {
					F80 = { NOT = { is_subject_of = F27 } }
					F80 = {
						OR = {
							has_opinion = { who = ROOT value = 150 }
							has_100_opinion_improved_relation = { target = ROOT }
						}
					}
				}
				vassalize = F80
			}
			
			else = {
				siffiraeri_area = {
					limit = {
						NOT = { is_core = ROOT }
						NOT = { owned_by = ROOT }
					}
					add_permanent_claim = ROOT
				}
				kharfiraeri_area = {
					limit = {
						NOT = { is_core = ROOT }
						NOT = { owned_by = ROOT }
					}
					add_permanent_claim = ROOT
				}
				nansalen_area = {
					limit = {
						NOT = { is_core = ROOT }
						NOT = { owned_by = ROOT }
					}
					add_permanent_claim = ROOT
				}
				662 = { add_permanent_claim = ROOT}
			}
		}
	}
	
	F30_acesening_heights = {
		icon = mission_heated_battle
		required_missions = { F30_harpy_skies }
		position = 3

		provinces_to_highlight = { 
			OR = {
				area = siffiraeri_area
				area = kharfiraeri_area
				area = nansalen_area
				province_id = 662
			}
			NOT = { country_or_non_sovereign_subject_holds = ROOT }
		}
		
		trigger = {
			AND = {
				siffiraeri_area = {
					country_or_non_sovereign_subject_holds = ROOT
					type = all
				}
				kharfiraeri_area = {
					country_or_non_sovereign_subject_holds = ROOT
					type = all
				}
				nansalen_area = {
					country_or_non_sovereign_subject_holds = ROOT
					type = all
				}
				662 = {
					country_or_non_sovereign_subject_holds = ROOT
				}
			}
		}
		
		effect = {
			if = {
				limit = {
					F80 = { is_subject_of = ROOT }
				}
				siffiraeri_area = {
					limit = {
						NOT = { is_core = F80  }
						NOT = { owned_by = F80 }
					}
					add_permanent_claim = F80
				}
				kharfiraeri_area = {
					limit = {
						NOT = { is_core = F80 }
						NOT = { owned_by = F80 }
					}
					add_permanent_claim = F80
				}
				nansalen_area = {
					limit = {
						NOT = { is_core = F80 }
						NOT = { owned_by = F80 }
					}
					add_permanent_claim = F80
				}
				custom_tooltip = F30_reduced_monstrous_tt
				hidden_effect = {
					F80 = {
						decrease_monstrous_10 = yes
						decrease_monstrous_10 = yes
						decrease_monstrous_5 = yes
					}
				}
			}
			else = {
				siffiraeri_area = {
					limit = {
						NOT = { is_core = ROOT }
						NOT = { owned_by = ROOT }
					}
					add_permanent_claim = ROOT
				}
				kharfiraeri_area = {
					limit = {
						NOT = { is_core = ROOT }
						NOT = { owned_by = ROOT }
					}
					add_permanent_claim = ROOT
				}
				nansalen_area = {
					limit = {
						NOT = { is_core = ROOT }
						NOT = { owned_by = ROOT }
					}
					add_permanent_claim = ROOT
				}
			}
		}
	}
	
	F30_kings_and_feathers = {
		icon = mission_junnagadh_fort
		required_missions = { F30_acesening_heights }
		position = 4

		provinces_to_highlight = { 
			OR = {
				area = gelkalis_area
				area = lawassar_area
				area = misharallen_area
				area = firanyalen_area
			}
			NOT = { country_or_non_sovereign_subject_holds = ROOT }
		}
		
		trigger = {
			siffiraeri_area = {
				country_or_non_sovereign_subject_holds = ROOT
				type = all
			}
			kharfiraeri_area = {
				country_or_non_sovereign_subject_holds = ROOT
				type = all
			}
			nansalen_area = {
				country_or_non_sovereign_subject_holds = ROOT
				type = all
			}
			OR = {
				advisor = statesman
				advisor = diplomat
			}
		}
		
		effect = {
			large_increase_of_harpy_tolerance_effect = yes
			country_event = { id = flavor_kumarkand.15 }
		}
	}
	
	F30_winged_bulwari = {
		icon = mission_harpy_diplomats
		required_missions = { F30_kings_and_feathers }
		position = 5

		provinces_to_highlight = { 
			AND = {
				culture = firanyan_harpy
				NOT = { development = 8 }
				NOT = { has_tax_building_trigger = yes}
				NOT = {has_courthouse_building_trigger = yes}
			}
		}
		
		trigger = {
			num_of_provinces_owned_or_owned_by_non_sovereign_subjects_with = {
				value = 5
				development = 8
				culture = firanyan_harpy
				has_tax_building_trigger = yes
				has_courthouse_building_trigger = yes
			}
			high_tolerance_harpy_race_trigger = yes
			has_country_modifier = racial_focus_harpy
		}
		
		effect = {
			add_country_modifier = {
				name = F30_bulwari_harpy
				duration = -1
			}
			add_accepted_culture = firanyan_harpy
			591 = {
				add_harpy_minority_size_effect = yes
			}
			harpy_hills_region = {
				limit = {
					NOT = { is_core = ROOT }
					NOT = { is_permanent_claim = ROOT }
					NOT = { country_or_non_sovereign_subject_holds = F30 }
				}
				add_permanent_claim = ROOT
			}
		}
	}
	
	F30_eyes_moons = {
		icon = mission_moon_moon
		required_missions = { F30_winged_bulwari }
		position = 6

		provinces_to_highlight = { 
			region = harpy_hills_region
			NOT = { country_or_non_sovereign_subject_holds = ROOT } 
		}
		
		trigger = {
			harpy_hills_region = {
				type = all
				country_or_non_sovereign_subject_holds = ROOT
			}
		}
		
		effect = {
			add_country_modifier = {
				name = F30_moons_guard
				duration = 10950
			}
			if = {
				limit = { has_country_flag = F30_osc_buff } 
				add_country_modifier = {
				name = F30_sibhluliam_soldiers
				duration = -1
				}
			}
		}
	}
}

kumarkand_slot_2 = {
	slot = 2
	generic = no
	ai = yes
	potential = {
		OR = {
			tag = F30 
			AND = {
				tag = F52 #Surakes
				was_tag = F30 
			}
		}
		is_incident_happened = incident_whisper_shadows
	}
	has_country_shield = yes
	
	F30_marching_coin = {
		icon = mission_new_army
		required_missions = {  }
		position = 1

		trigger = {
			army_size_percentage = 0.8
			num_of_mercenaries = 12
			treasury = 200
			OR = {
				employed_advisor = {
					category = MIL
				}
				mil_power = 50
			}
		}
		
		effect = {
			set_estate_privilege = estate_adventurers_rangers
			if = {
				limit = { NOT = { employed_advisor = { category = MIL } } }
				add_mil_power = -50
			}
			add_treasury = -200
		}
	}
	
	F30_greater_kumarkand = {
		icon = mission_janissaries
		required_missions = { F30_marching_coin }
		position = 2

		provinces_to_highlight = { 
			OR = {
				AND = {
					area = anzarzax_area
					NOT = { infantry_in_province = ROOT }
					NOT = { country_or_non_sovereign_subject_holds = ROOT }
				}
				AND = {
					area = bulwar_area
					NOT = { country_or_non_sovereign_subject_holds = ROOT }
				}
				AND = {
					province_id = 593
					NOT = { infantry_in_province = ROOT }
					NOT = { country_or_non_sovereign_subject_holds = ROOT }
				}
				AND = {
					province_id = 601
					NOT =  { province_has_current_tech_fort_trigger = yes }
				}
			}
		}
			
		trigger = {
			anzarzax_area = {
				type = all
				country_or_non_sovereign_subject_holds = ROOT
				num_of_units_in_province = {
					who = ROOT
					type = infantry
					amount = 1
				}
			}
			593 = {
				country_or_non_sovereign_subject_holds = ROOT
				num_of_units_in_province = {
					who = ROOT
					type = infantry
					amount = 1
				}
			}
			bulwar_area = {
				type = all
				country_or_non_sovereign_subject_holds = ROOT
			}
			601 = {
				province_has_current_tech_fort_trigger = yes
			}
			estate_loyalty = {
				estate = estate_nobles
				loyalty = 60
			}
			estate_loyalty = {
				estate = estate_adventurers
				loyalty = 60
			}
		}
		
		effect = {
			anzarzax_area = {
				change_culture = zanite
			}
			593 = {
				change_culture = zanite
			}
			irrliam_area = {
				limit = {
					NOT = { is_core = ROOT }
					NOT = { is_permanent_claim = ROOT }
				}
				add_permanent_claim = ROOT
			}
			anzabad_area = {
				limit = {
					NOT = { is_core = ROOT }
					NOT = { is_permanent_claim = ROOT }
				}
				add_permanent_claim = ROOT
			}
			zansap_area = {
				limit = {
					NOT = { is_core = ROOT }
					NOT = { is_permanent_claim = ROOT }
				}
				add_permanent_claim = ROOT
			}
			561 = { add_permanent_claim = ROOT }
		}
	}
	
	F30_middle_brother = {
		icon = mission_arabian_sea_trade
		required_missions = { F30_greater_kumarkand }
		position = 3

		provinces_to_highlight = { 
			OR = {
				AND = {
					area = irrliam_area
					NOT = { country_or_non_sovereign_subject_holds = ROOT }
				}
				AND = {
					area = anzabad_area
					NOT = { country_or_non_sovereign_subject_holds = ROOT }
				}
				AND = {
					area = zansap_area
					NOT = { country_or_non_sovereign_subject_holds = ROOT }
				}
				AND = {
					province_id = 560
					NOT = { development = 20 }
					NOT = { province_has_current_tech_fort_trigger = yes }
					NOT = { has_production_building_trigger = yes }
					NOT = { has_dock_building_trigger = yes }
					NOT = { has_tax_building_trigger = yes }
				}
			}
		}
		
		trigger = {
			irrliam_area = {
				type = all
				country_or_non_sovereign_subject_holds = ROOT
			}
			anzabad_area = {
				type = all
				country_or_non_sovereign_subject_holds = ROOT
			}
			zansap_area = {
				type = all
				country_or_non_sovereign_subject_holds = ROOT
			}
			560 = {
				development = 20
				province_has_current_tech_fort_trigger = yes
				has_production_building_trigger = yes
				has_dock_building_trigger = yes
				has_tax_building_trigger = yes
			}
		}
		
		effect = {
			560 = {
				add_permanent_province_modifier = {
					name = F30_abadi_port
					duration = -1
				}
			}
			medurubar_area = {
				limit = {
					NOT = { is_core = ROOT }
					NOT = { is_permanent_claim = ROOT }
				}
				add_permanent_claim = ROOT
			}
			upper_brasan_area = {
				limit = {
					NOT = { is_core = ROOT }
					NOT = { is_permanent_claim = ROOT }
				}
				add_permanent_claim = ROOT
			}
			lower_brasan_area = {
				limit = {
					NOT = { is_core = ROOT }
					NOT = { is_permanent_claim = ROOT }
				}
				add_permanent_claim = ROOT
			}
			outer_drolas_area = {
				limit = {
					NOT = { is_core = ROOT }
					NOT = { is_permanent_claim = ROOT }
				}
				add_permanent_claim = ROOT
			}
			inner_drolas_area = {
				limit = {
					NOT = { is_core = ROOT }
					NOT = { is_permanent_claim = ROOT }
				}
				add_permanent_claim = ROOT
			}
			if = {
				limit = { 
					has_country_flag = F30_nsc_buff 
				} 
				add_country_modifier = {
					name = F30_taelarois_guidance
					duration = -1
				}
			}
		}
	}
	
	F30_city_desire = {
		icon = mission_sunset_alternative
		required_missions = { F30_middle_brother }
		position = 4

		provinces_to_highlight = { 
			OR = {
				AND = {
					area = medurubar_area
					NOT = { country_or_non_sovereign_subject_holds = ROOT }
				}
				AND = {
					area = upper_brasan_area
					NOT = { country_or_non_sovereign_subject_holds = ROOT }
				}
				AND = {
					area = lower_brasan_area
					NOT = { country_or_non_sovereign_subject_holds = ROOT }
				}
				AND = {
					area = outer_drolas_area
					NOT = { country_or_non_sovereign_subject_holds = ROOT }
				}
				AND = {
					area = inner_drolas_area
					NOT = { country_or_non_sovereign_subject_holds = ROOT }
				}
				AND = {
					province_id = 565
					NOT = { province_has_center_of_trade_of_level = 3 }
					NOT = { has_production_building_trigger = yes }
					NOT = { has_trade_building_trigger = yes }
					if = {
						limit = { has_dlc = "Leviathan" }
						NOT = { num_of_times_expanded_infrastructure = 1 }
					}
				}
			}
		}
		
		trigger = {
			medurubar_area = {
				type = all
				country_or_non_sovereign_subject_holds = ROOT
			}
			upper_brasan_area = {
				type = all
				country_or_non_sovereign_subject_holds = ROOT
			}
			lower_brasan_area = {
				type = all
				country_or_non_sovereign_subject_holds = ROOT
			}
			outer_drolas_area = {
				type = all
				country_or_non_sovereign_subject_holds = ROOT
			}
			inner_drolas_area = {
				type = all
				country_or_non_sovereign_subject_holds = ROOT
			}
			565 = {
				province_has_center_of_trade_of_level = 3
				has_production_building_trigger = yes
				has_trade_building_trigger = yes
				if = {
					limit = { has_dlc = "Leviathan" }
					num_of_times_expanded_infrastructure = 1
				}
				
			}
		}
		
		effect = {
			sur_mountains = {
				limit = {
					NOT = { is_core = ROOT }
					NOT = { is_permanent_claim = ROOT }
				}
				add_permanent_claim = ROOT
			}
			565 = {
				add_permanent_province_modifier = {
					name = F30_city_our_desire
					duration = -1
				}
			}
		}
	}
	
	F30_sadnatu_riches = {
		icon = mission_mechanical_mining
		required_missions = { F30_city_desire }
		position = 6

		provinces_to_highlight = { 
			OR = {
				AND = {
					province_group = sur_mountains
					NOT = { country_or_non_sovereign_subject_holds = ROOT }
				}
				AND = {
					province_id = 689
					NOT = { base_production = 6 }
				}
			}
		}
		
		trigger = {
			sur_mountains = {
				type = all
				country_or_non_sovereign_subject_holds = ROOT
			}
			OR = {
				advisor = natural_scientist
				advisor = master_of_mint
				}
			689 = {
				base_production = 6
			}
			manpower = 10
		}
		
		effect = {
			country_event = { id = flavor_kumarkand.16 }
		}
	}
	
	F30_rangers_armies = {
		icon = mission_janissary_soldier
		required_missions = { F30_eyes_moons F30_sadnatu_riches }
		position = 7

		provinces_to_highlight = { 
			province_id = 591
		}
		
		trigger = {
			treasury = 1500
			army_tradition = 50
			mil_power = 150
			any_hired_mercenary_company = {
				template = merc_kumarkandi_rangers_one
				location = { area = kumarkand_area } 
			}
		}
		
		effect = {
			custom_tooltip = F30_raners_upgrade_tt
			add_treasury = -1500
			add_mil_power = -150
			add_army_tradition = -20
			set_country_flag = kumarkand_rangers_two_unlock
		}
	}
}

kumarkand_slot_3 = {
	slot = 3
	generic = no
	ai = yes
	potential = {
		OR = {
			tag = F30 
			AND = {
				tag = F52 #Surakes
				was_tag = F30 
			}
		}
		is_incident_happened = incident_whisper_shadows
	}
	has_country_shield = yes
	
	F30_honouring_word = {
		icon = mission_muslim_administrators
		required_missions = { F30_marching_coin F30_break_soil }
		position = 2

		provinces_to_highlight = { 
			OR = {
				area = east_naza_area
				area = south_naza_area
				province_id = 604
				province_id = 611
			}
			NOT = { country_or_non_sovereign_subject_holds = ROOT }
		}
		
		trigger = {
			east_naza_area = {
				type = all
				country_or_non_sovereign_subject_holds = ROOT
			}
			south_naza_area = {
				type = all
				country_or_non_sovereign_subject_holds = ROOT
			}
			604 = { country_or_non_sovereign_subject_holds = ROOT }
			611 = { country_or_non_sovereign_subject_holds = ROOT }
			OR = {
				F33 = {
					has_opinion = { who = ROOT value = 100 }	
				}
				diplomatic_reputation = 3
			}
		}
		
		effect = {
			harklum_area = {
				limit = {
					NOT = { is_core = ROOT }
					NOT = { is_permanent_claim = ROOT }
				}
				add_permanent_claim = ROOT
			}
			sareyand_area = {
				limit = {
					NOT = { is_core = ROOT }
					NOT = { is_permanent_claim = ROOT }
				}
				add_permanent_claim = ROOT
			}
			avamezan_area = {
				limit = {
					NOT = { is_core = ROOT }
					NOT = { is_permanent_claim = ROOT }
				}
				add_permanent_claim = ROOT
			}
			custom_tooltip = F30_akalses_hand_land_tt
			hidden_effect = {
				every_owned_province = {
					limit = {
						OR = {
							area = east_naza_area
							area = south_naza_area
						}
					}
                    remove_core = ROOT
                    add_core = F33
					cede_province = F33
				}
				if = {
					limit = {
						has_country_flag = F30_akal_ally
					}
					615 = {
						remove_core = ROOT
						cede_province = F33
					}
				}
			}
		}
	}
	
	F30_zanites_again = {
		icon = per_balance_of_power
		required_missions = { F30_honouring_word }
		position = 3

		provinces_to_highlight = { 
			OR = {
				AND = {
					area = avamezan_area
					NOT = { country_or_non_sovereign_subject_holds = ROOT }
				}
				AND = {
					area = sareyand_area
					NOT = { country_or_non_sovereign_subject_holds = ROOT }
				}
				AND = {
					area = harklum_area
					NOT = { country_or_non_sovereign_subject_holds = ROOT }
				}
			}
		}
		
		trigger = {
			avamezan_area = {
				type = all
				country_or_non_sovereign_subject_holds = ROOT
				OR = {
					is_state = yes
					owned_by = F33
				}
			}
			sareyand_area = {
				type = all
				country_or_non_sovereign_subject_holds = ROOT
				OR = {
					is_state = yes
					owned_by = F33
				}
			}
			harklum_area = {
				type = all
				country_or_non_sovereign_subject_holds = ROOT
				is_state = yes
			}
		}
		
		effect = {
			country_event = { id = flavor_kumarkand.32 }
			eduz_vacyn_area = {
				limit = {
					NOT = { is_core = ROOT }
					NOT = { is_permanent_claim = ROOT }
				}
				add_permanent_claim = ROOT
			}
			upper_suran_area = {
				limit = {
					NOT = { is_core = ROOT }
					NOT = { is_permanent_claim = ROOT }
				}
				add_permanent_claim = ROOT
			}
			panuses_area = {
				limit = {
					NOT = { is_core = ROOT }
					NOT = { is_permanent_claim = ROOT }
				}
				add_permanent_claim = ROOT
			}
		}
	}
	
	F30_suran_flames = {
		icon = mission_sun_temple
		required_missions = { F30_zanites_again }
		position = 4

		provinces_to_highlight = { 
			OR = {
				AND = {
					area = eduz_vacyn_area
					NOT = { country_or_non_sovereign_subject_holds = ROOT }
				}
				AND = {
					area = upper_suran_area
					NOT = { country_or_non_sovereign_subject_holds = ROOT }
				}
				AND = {
					area = panuses_area
					NOT = { country_or_non_sovereign_subject_holds = ROOT }
				}
				AND = {
					province_id = 631
					NOT = { province_has_current_tech_fort_trigger = yes }
					NOT = {	has_forcelimit_building_trigger = yes }
				}
				AND = {
					province_id = 640
					NOT = { province_has_current_tech_fort_trigger = yes}
					NOT = {	has_forcelimit_building_trigger = yes }
				}
			}
		}
		
		trigger = {
			eduz_vacyn_area = {
				type = all
				country_or_non_sovereign_subject_holds = ROOT
			}
			upper_suran_area = {
				type = all
				country_or_non_sovereign_subject_holds = ROOT
			}
			panuses_area = {
				type = all
				country_or_non_sovereign_subject_holds = ROOT
			}
			631 = {
				province_has_current_tech_fort_trigger = yes
				has_forcelimit_building_trigger = yes
			}
			640 = {
				province_has_current_tech_fort_trigger = yes
				has_forcelimit_building_trigger = yes
			}
			NOT = { exists = F33 }
			AND = {
				avamezan_area = {
					type = all
					development = 8
					NOT = { devastation = 1 }
				}
				east_naza_area = {
					type = all
					development = 8
					NOT = { devastation = 1 }
				}
				north_naza_area = {
					type = all
					development = 8
					NOT = { devastation = 1 }
				}
				615 = {
					development = 8
					NOT = { devastation = 1 }
				}
			}
		}
		
		effect = {
			azka_sur_area = {
				limit = {
					NOT = { is_core = ROOT }
					NOT = { is_permanent_claim = ROOT }
				}
				add_permanent_claim = ROOT
			}
			grixek_area = {
				limit = {
					NOT = { is_core = ROOT }
					NOT = { is_permanent_claim = ROOT }
				}
				add_permanent_claim = ROOT
			}
			jikarzax_area = {
				limit = {
					NOT = { is_core = ROOT }
					NOT = { is_permanent_claim = ROOT }
				}
				add_permanent_claim = ROOT
			}
			631 = {
				add_permanent_province_modifier = {
					name = F30_surani_forts
					duration = -1
				}
			}
			640 = {
				add_permanent_province_modifier = {
					name = F30_surani_forts
					duration = -1
				}
			}
			add_country_modifier = {
				name = F30_bastion_tradition
				duration = 9125
			}
		}
	}
	
	F30_empire_edge = {
		icon = per_establish_eastern_defenses
		required_missions = { F30_suran_flames }
		position = 5

		provinces_to_highlight = { 
			OR = {
				AND = {
					area = azka_sur_area
					NOT = { country_or_non_sovereign_subject_holds = ROOT }
				}
				AND = {
					area = grixek_area
					NOT = { country_or_non_sovereign_subject_holds = ROOT }
				}
				AND = {
					area = jikarzax_area
					NOT = { country_or_non_sovereign_subject_holds = ROOT }
				}
					
				AND = {
					province_id = 643
					NOT = { province_has_current_tech_fort_trigger = yes }
					NOT = { has_forcelimit_building_trigger = yes }
				}
				AND = {
					culture = surani
					trade_goods = grain
					NOT = { base_manpower = 6 }
					NOT = { has_manufactory_trigger = yes }
				}
			}
		}
		
		trigger = {
			azka_sur_area = {
				type = all
				country_or_non_sovereign_subject_holds = ROOT
			}
			grixek_area = {
				type = all
				country_or_non_sovereign_subject_holds = ROOT
			}
			jikarzax_area = {
				type = all
				country_or_non_sovereign_subject_holds = ROOT
			}
			643 = {
				province_has_current_tech_fort_trigger = yes
				has_forcelimit_building_trigger = yes
			}
			num_of_provinces_owned_or_owned_by_non_sovereign_subjects_with = {
				value = 3
				culture = surani
				trade_goods = grain
				base_manpower = 6
				has_manufactory_trigger = yes
			}
		}
		
		effect = {
			643 = {
				add_permanent_province_modifier = {
					name = F30_surani_forts
					duration = -1
				}	
				add_permanent_province_modifier = {
					name = F30_farming_level_one
					duration = -1
				} 
			}
			if = {
				limit = { 
					has_country_flag = F30_jadd_buff 
				} 
				add_country_modifier = {
					name = F30_untied_coin_faith
					duration = -1
				}
			}
		}
	}
	
	F30_regigning_ituqattar = {
		icon = per_qizilbash_loyalty
		required_missions = { F30_sadnatu_riches F30_empire_edge F30_project_mortality }
		position = 7
		
		trigger = {
			government_reform_progress = 100
			NOT = {
				num_of_estate_privileges = {
					estate = estate_nobles
					value = 3
				}
			}
			NOT = { has_estate_privilege = estate_nobles_right_of_counsel }
		}
		
		effect = {
			custom_tooltip = F30_ituqattar_unrest_tt
			country_event = { id = flavor_kumarkand.48 }
		}
	}
	
	F30_crowning_empire = {
		icon = mission_empire
		required_missions = { F30_rangers_armies F30_regigning_ituqattar F30_farming_act}
		position = 8

		provinces_to_highlight = {
			OR = {
				AND = {
					province_group = suran_river
					NOT = { owned_by = F30 }
				}
				AND = {
					province_id = 591
					NOT = {	development = 30 }
					NOT = { num_of_buildings_in_province = 6 }
				}
			}
		}
		
		trigger = {
			stability = 2
			591 = {
				development = 30
				num_of_buildings_in_province = 6
			}
			NOT = { num_of_rebel_armies = 1 }
			NOT = { num_of_rebel_controlled_provinces = 1 }
			suran_river = {
				type = all
				owned_by = ROOT
				is_state = yes
			}
		}
		
		effect = {
			country_event = { id = flavor_kumarkand.24 }
			override_country_name = kumarkand_karqaslu
			bahar_region = {
				add_permanent_claim = ROOT
			}
		}
	}	
}

kumarkand_slot_4 = {
	slot = 4
	generic = no
	ai = yes
	potential = {
		OR = {
			tag = F30 
			AND = {
				tag = F52 #Surakes
				was_tag = F30 
			}
		}
		is_incident_happened = incident_whisper_shadows
	}
	has_country_shield = yes
	
	F30_break_soil = {
		icon = mission_secure_khandesh
		required_missions = {  }
		position = 1

		provinces_to_highlight = { 
			OR = {
				AND = {
					province_id = 591 
					NOT = { development = 20 }
					NOT = { has_tax_building_trigger = yes}
					NOT = { has_trade_building_trigger = yes}	
				}
				AND = {
					province_id = 603 
					NOT = { development = 15 }
				}
			}
		}
		
		trigger = {
			591 = {
				development = 20
				has_tax_building_trigger = yes
				has_trade_building_trigger = yes
			}
			603 = {
				development = 15
			}
		}
		
		effect = {
			country_event = { id = flavor_kumarkand.30 }
			591 = {
				add_permanent_province_modifier = {
					name = F30_farming_level_one
					duration = -1
				}
			}
			603 = {
				add_permanent_province_modifier = {
					name = F30_farming_level_one
					duration = -1
				}
			}
		}
	}
	
	F30_finest_host = {
		icon = per_recruit_the_qizilbash
		required_missions = { F30_break_soil }
		position = 2

		provinces_to_highlight = { 
			OR = {
				AND = {
					owned_by = F30
					OR = {
						has_terrain = grasslands
						has_terrain = drylands
						has_terrain = farmlands
					}
					NOT = { has_manpower_building_trigger = yes }
					NOT = { base_manpower = 6 }
				}
			}
		}
		
		trigger = {
			num_of_cavalry = 10
			cavalry_fraction = 0.3
			num_of_owned_provinces_with = {
				value = 4
				OR = {
				has_terrain = grasslands
				has_terrain = drylands
				has_terrain = farmlands
				}
				has_manpower_building_trigger = yes
				base_manpower = 6
			}
		}
		
		effect = {
			add_country_modifier = {
				name = F30_ituqattar_level_1
				duration = -1
			}
		}
	}
	
	F30_honest_work = {
		icon = mission_pol_breadbasket_europe
		required_missions = { F30_finest_host }
		position = 3

		provinces_to_highlight = { 
			is_capital = yes
			owner = { culture_group = halfling }
			NOT = { country_or_non_sovereign_subject_holds = ROOT }
		}
		
		trigger = {
			any_known_country = {
				culture_group = halfling
				capital_scope = {
					continent = europe
				}
				OR = {
					has_opinion = { who = ROOT value = 100 }
					has_50_opinion_improved_relation = { target = ROOT }
				}
			}
			num_of_owned_provinces_with = {
				value = 2
				has_building = farm_estate
				base_production = 6
			}
		}
		
		effect = {
			custom_tooltip = F30_farming_one_unlock_tt
			custom_tooltip = F30_farming_over_time_tt
			every_owned_province = {
				kumarkand_farming_upgrade = yes
			}
			591 = {
				add_halfling_minority_size_effect = yes
			}
			large_increase_of_halfling_tolerance_effect = yes
		}
	}
	
	F30_bulwari_sundriders = {
		icon = mission_mansure_army
		required_missions = { F30_zanites_again F30_honest_work }
		position = 4

		provinces_to_highlight = { 
			OR = {
				AND = {
					province_id = 613
					NOT = { has_building = mage_tower }
					NOT = {has_manpower_building_trigger = yes }
					NOT = { base_manpower = 8 }
				}
				AND = {
					province_id = 616
					NOT = { has_manpower_building_trigger = yes }
					NOT = { base_manpower = 8 }
				}
			}
		}
		
		trigger = {
			613 = {
				has_building = mage_tower
				has_manpower_building_trigger = yes
				base_manpower = 8
			}
			616 = {
				has_manpower_building_trigger = yes
				base_manpower = 8
			}
		}
		
		effect = {
			clr_country_flag = unlocked_merc_sarraka
			unlock_merc_company = {
				merc_company = merc_sarraka_two
				free_merc = yes
			}
			custom_tooltip = F30_sarraka_info_two_tt
			country_event = { id = flavor_kumarkand.14 }
		}
	}
	
	F30_kasnitu_society = {
		icon = mission_the_grand_bazaar
		required_missions = { F30_bulwari_sundriders }
		position = 5

		provinces_to_highlight = { 
			AND = {
				province_id = 591
				NOT = { development = 25 }
				NOT = { has_courthouse_building_trigger = yes }
			}
		}
		
		trigger = {
			treasury = 300
			adm_power = 50
			dip_power = 50
			mil_power = 50
			OR = {
				advisor = artist
				advisor = philosopher
			}
			591 = {
				development = 25
				has_courthouse_building_trigger = yes 
			}
		}
		
		effect = {
			591 = {
				add_building_construction = {
					building = university
					speed = 1
					cost = 0
				}
			}
			add_adm_power = -50
			add_dip_power = -50
			add_mil_power = -50
			country_event = { id = flavor_kumarkand.26 }
		}
	}
	
	F30_project_mortality = {
		icon = mission_empowerment
		required_missions = { F30_kasnitu_society }
		position = 6

		provinces_to_highlight = { 
			AND = {
				province_id = 591
				NOT = { 
					num_of_units_in_province = {
						who = ROOT
						amount = 20
					}
				}
				NOT = { has_building = mage_tower }
			}
		}
		
		trigger = {
			591 = {
				num_of_units_in_province = {
					who = ROOT
					amount = 20
				}
				has_building = mage_tower
			}
			adm_power = 100
			dip_power = 100
			mil_power = 100
			OR = {
				advisor = court_mage
				advisor = natural_scientist
			}	
			if = {
				limit = {
					has_estate = estate_mages
				}
				has_estate_privilege = estate_mages_reduced_research_regulations
			}
		}
		
		effect = {
			591 = {
				kill_units = {
					who = ROOT
					amount = 20
				}
			}
			add_adm_power = -100
			add_dip_power = -100
			add_mil_power = -100
			country_event = { id = flavor_kumarkand.17 days = 365 }
			}
	}
	
	F30_farming_act = {
		icon = mission_the_sudebnik
		required_missions = { F30_project_mortality }
		position = 7

		provinces_to_highlight = { 
			
		}
		
		trigger = {
			num_of_owned_provinces_with = {
				value = 12
				has_province_modifier = F30_farming_level_one
			}
			num_of_owned_provinces_with = {
				value = 8
				has_province_modifier = F30_farming_level_one
				has_production_building_trigger = yes
				base_production = 7
				OR = {
					trade_goods = grain
					trade_goods = livestock
				}
			}
		}
		
		effect = {
			custom_tooltip = F30_farming_two_unlock_tt
		}
	}
}

kumarkand_slot_5 = {
	slot = 5
	generic = no
	ai = yes
	potential = {
		OR = {
			tag = F30 
			AND = {
				tag = F52 #Surakes
				was_tag = F30 
			}
		}
		is_incident_happened = incident_whisper_shadows
	}
	has_country_shield = yes
	
	F30_policy_faith = {
		icon = mission_monarch_diplomacy
		required_missions = { F30_break_soil }
		position = 2

		trigger = {
			estate_loyalty = {
				estate = estate_church
				loyalty = 55
			}
			if = {
				limit = {
					has_dlc = "Domination"
				}
				has_estate_privilege = estate_church_expand_the_theology
			}
			OR = {
				advisor = theologian
				advisor = inquisitor
			}
		}
		
		effect = {
			country_event = { id = flavor_kumarkand.12}
		}
	}
	
	F30_faith_flux = {
		icon = mission_dhimmi
		required_missions = { F30_policy_faith }
		position = 3
		
		provinces_to_highlight = {
		
		}

		trigger = {
			if = {
				limit = {
					religion = bulwari_sun_cult
				}
				stability = 1
				num_of_estate_privileges = {
					estate = estate_church
					value = 2
				}
			}
			if = {
				limit = {
					religion = old_bulwari_sun_cult
				}
				NOT = { has_estate_privilege = estate_church_surakels_orthodoxy }
			}
			if = {
				limit = {
					religion = the_jadd
				}
				OR = {
					any_known_country = {
						capital_scope = {
							superregion = bulwar_superregion
						}
						religion = the_jadd
						OR = {
							has_opinion = { who = ROOT value = 100 }
							has_80_opinion_improved_relation = { target = ROOT }
						}
					}
					NOT = { 
						any_known_country = { 
							capital_scope = {
								superregion = bulwar_superregion
							}
							religion = the_jadd
						}
					}
				}
				diplomatic_reputation = 3	
			}
		}
		
		effect = {
			if = {
				limit = {
					religion = bulwari_sun_cult
				}
				country_event = { id = flavor_kumarkand.36 }
			}
			if = {
				limit = {
					religion = old_bulwari_sun_cult
				}
				country_event = { id = flavor_kumarkand.40 }
			}
			if = {
				limit = {
					religion = the_jadd
				}
				country_event = { id = flavor_kumarkand.44 }
			}
		}
	}
	
	F30_benefactor_pious = {
		icon = mission_shady_encounter
		required_missions = { F30_faith_flux }
		position = 4

		provinces_to_highlight = { 
		
		}
		
		trigger = {
			if = {
				limit = {
					religion = bulwari_sun_cult
				}
				custom_trigger_tooltip = {
					tooltip = F30_list_nsc_tt
					num_of_owned_provinces_with = {
						value = 3
						province_group = F30_nsc_major_temples_provinces
						has_tax_building_trigger = yes
						num_of_units_in_province = {
							who = ROOT
							amount = 10
						}
					}
				}
			}
			if = {
				limit = {
					religion = old_bulwari_sun_cult
				}
				treasury = 300
				mil_power = 100
				OR = {
					any_known_country = {
						capital_scope = {
							superregion = bulwar_superregion
						}
						religion = old_bulwari_sun_cult
						OR = {
							has_opinion = { who = ROOT value = 100 }
							has_80_opinion_improved_relation = { target = ROOT }
						}
					}
					any_known_country = {
						capital_scope = {
							superregion = bulwar_superregion
						}
						religion = old_bulwari_sun_cult
						NOT = { exists = yes }
					}
				}
			}
			if = {
				limit = {
					religion = the_jadd
				}
				estate_loyalty = {
					estate = estate_adventurers
					loyalty = 60
				}
				num_of_owned_provinces_with = {
					value = 20
					religion = the_jadd
				}
			}
		}
		
		effect = {
			if = {
				limit = {
					religion = bulwari_sun_cult
				}
				country_event = { id = flavor_kumarkand.37 }
			}
			if = {
				limit = {
					religion = old_bulwari_sun_cult
				}
				add_treasury = -300
				add_mil_power = -100
				country_event = { id = flavor_kumarkand.41 }
			}
			if = {
				limit = {
					religion = the_jadd
				}
				country_event = { id = flavor_kumarkand.45 }
			}
		}
	}
	
	F30_dimuzi = {
		icon = mission_burning_man
		required_missions = { F30_kasnitu_society F30_benefactor_pious }
		position = 6

		provinces_to_highlight = { 
			
		}
		
		trigger = {
			if = {
				limit = {
					religion = bulwari_sun_cult
				}
				655 = {
					country_or_non_sovereign_subject_holds = ROOT
					has_tax_building_trigger = yes
				}
				has_country_modifier = racial_focus_half_elven
			}
			if = {
				limit = {
					religion = old_bulwari_sun_cult
				}
				army_tradition = 60
				num_of_owned_provinces_with = {
					value = 30
					religion = old_bulwari_sun_cult
				}
			}
			if = {
				limit = {
					religion = the_jadd
				}
				num_accepted_cultures = 2
				custom_trigger_tooltip = {
					tooltip = F30_jadd_fervor_tt
					has_active_fervor = fervor_stability
				}
			}
		}
		
		effect = {
			if = {
				limit = {
					religion = bulwari_sun_cult
				}
				country_event = { id = flavor_kumarkand.38 }
			}
			if = {
				limit = {
					religion = old_bulwari_sun_cult
				}
				country_event = { id = flavor_kumarkand.42 }
			}
			if = {
				limit = {
					religion = the_jadd
				}
				country_event = { id = flavor_kumarkand.46 }
			}
		}
	}
	
	F30_surakel_empire = {
		icon = mission_arise_ashes
		required_missions = { F30_dimuzi }
		position = 7

		provinces_to_highlight = { 
			
		}
		
		trigger = {
			if = {
				limit = {
					religion = bulwari_sun_cult
				}
				is_incident_happened = incident_silent_as_the_grave
			}
			if = 	{
				limit = {
					religion = old_bulwari_sun_cult
				}
				has_estate_privilege = estate_church_enforced_one_faith
				has_estate_privilege = estate_church_independent_inquisition
				custom_trigger_tooltip = {
					tooltip = F30_OSC_centralization_completed_tt
					has_country_flag = osc_centralization_completed
				}
			}
			if = {
				limit = {
					religion = the_jadd
				}
				num_of_owned_provinces_with = {
					value = 150
					religion = the_jadd
				}
				2909 = {
					country_or_non_sovereign_subject_holds = ROOT
				}
			}
		}
		
		effect = {
			if = {
				limit = {
					religion = bulwari_sun_cult
				}
				country_event = { id = flavor_kumarkand.39 }
			}
			if = {
				limit = {
					religion = old_bulwari_sun_cult
				}
				country_event = { id = flavor_kumarkand.43 }
			}
			if = {
				limit = {
					religion = the_jadd
				}
				country_event = { id = flavor_kumarkand.47 }
			}
		}
	}
}

kumarkand_karqaslu_slot_1 = {
	slot = 1
	generic = no
	ai = yes
	potential = {
		OR = {
			tag = F30 
			AND = {
				tag = F52 #Surakes
				was_tag = F30 
			}
		}
		is_incident_happened = incident_whisper_shadows
		has_country_flag = F30_karqaslu_mission
	}
	has_country_shield = yes
	
	F30_ituqattar_resplendent = {
		icon = mission_subdue_rajputana
		required_missions = { F30_back_bahar }
		position = 10

		provinces_to_highlight = { 
			OR = {
				AND = {
					area = azka_evran_area
					NOT = { country_or_non_sovereign_subject_holds = ROOT }
					NOT = { has_manpower_building_trigger = yes }
					NOT = { has_forcelimit_building_trigger = yes }
					NOT = { base_production = 8 }
					NOT = { base_manpower = 8 }
					if = {
						limit = {
							has_dlc = "Mandate of Heaven"
						}
						NOT = {	is_prosperous = yes }
					} 
				}
				AND = {
					area = aqatbahar_area
					NOT = { country_or_non_sovereign_subject_holds = ROOT }
					NOT = { has_manpower_building_trigger = yes }
					NOT = { has_forcelimit_building_trigger = yes }
					NOT = { base_production = 8 }
					NOT = { base_manpower = 8 }
					if = {
						limit = {
							has_dlc = "Mandate of Heaven"
						}
						NOT = {	is_prosperous = yes }
					} 
				}
				AND = {
					area = bahar_szel_uak_area
					NOT = { country_or_non_sovereign_subject_holds = ROOT }
					NOT = { has_manpower_building_trigger = yes }
					NOT = { has_forcelimit_building_trigger = yes }
					NOT = { base_production = 8 }
					NOT = { base_manpower = 8 }
					if = {
						limit = {
							has_dlc = "Mandate of Heaven"
						}
						NOT = {	is_prosperous = yes }
					} 
				}
			}
		}
		
		trigger = {
			azka_evran_area = {
				type = all
				has_manpower_building_trigger = yes
				has_forcelimit_building_trigger = yes
				base_production = 8
				base_manpower = 8
				country_or_non_sovereign_subject_holds = ROOT
				if = {
					limit = {
						has_dlc = "Mandate of Heaven"
					}
					is_prosperous = yes
				} 
			}
			aqatbahar_area = {
				type = all
				has_manpower_building_trigger = yes
				has_forcelimit_building_trigger = yes
				base_production = 8
				base_manpower = 8
				country_or_non_sovereign_subject_holds = ROOT
				if = {
					limit = {
						has_dlc = "Mandate of Heaven"
					}
					is_prosperous = yes
				} 
			}
			bahar_szel_uak_area = {
				type = all
				has_manpower_building_trigger = yes
				has_forcelimit_building_trigger = yes
				base_production = 8
				base_manpower = 8
				country_or_non_sovereign_subject_holds = ROOT
				if = {
					limit = {
						has_dlc = "Mandate of Heaven"
					}
					is_prosperous = yes
				} 
			}
		}
		
		effect = {
			country_event = { id = flavor_kumarkand.18 }
			remove_country_modifier = F30_ituqattar_level_2
			add_country_modifier = { 
				name =  F30_ituqattar_level_3
				duration = -1 
			}
		}
	}
}

kumarkand_karqaslu_slot_2 = {
	slot = 2
	generic = no
	ai = yes
	potential = {
		OR = {
			tag = F30 
			AND = {
				tag = F52 #Surakes
				was_tag = F30 
			}
		}
		is_incident_happened = incident_whisper_shadows
		has_country_flag = F30_karqaslu_mission
	}
	has_country_shield = yes
	
	F30_back_bahar = {
		icon = mission_horse_siege
		required_missions = { F30_crowning_empire }
		position = 9

		provinces_to_highlight = { 
			OR = {
				AND = {
					region = bahar_region
					controlled_by = REB
				}
				AND = {
					region = bahar_region
					unrest = 1 
				}
				AND = {
					region = bahar_region
					NOT = { country_or_non_sovereign_subject_holds = ROOT }
				}
			}
		}
		
		
		trigger = {
			bahar_region = {
				type = all
				is_state = yes
				NOT = { unrest = 1 }
				country_or_non_sovereign_subject_holds = ROOT
				NOT = { controlled_by = REB }
			}
			OR = {
				num_of_owned_provinces_with = {
					value = 15
					region = bahar_region
					has_courthouse_building_trigger = yes
				}
				num_of_owned_provinces_with = {
					value = 5
					region = bahar_region
					has_building = state_house
				}
			}
		}
					
		effect = {
			bahar_region = {
				add_province_modifier = {
					name = F30_alusirs_bahar
					duration = 7300
				}
			}
		}
	}
	
	F30_calling_deep = {
		icon = mission_stormy_seas
		required_missions = { F30_back_bahar }
		position = 10

		provinces_to_highlight = { 
			OR = {
				AND = {
					province_id = 565
					NOT = { has_building = mage_tower }
				}	
				AND = {
					province_id = 565
					NOT = { province_has_current_tech_fort_trigger = yes }
				}		
				AND = {
					province_id = 560
					NOT = { has_building = mage_tower }
				}
				AND = {
					province_id = 560
					NOT = { province_has_current_tech_fort_trigger = yes }
				}
				AND = {
					province_id = 536
					NOT = { has_building = mage_tower }
				}
				AND = {
					province_id = 536
					NOT = { province_has_current_tech_fort_trigger = yes }
				}
			}
		}
		
		trigger = {
			565 = {
				has_building = mage_tower
				province_has_current_tech_fort_trigger = yes
			}
			560 = {
				has_building = mage_tower
				province_has_current_tech_fort_trigger = yes
			}
			536 = {
				has_building = mage_tower
				province_has_current_tech_fort_trigger = yes
			}
			estate_loyalty = {
				estate = estate_mages
				loyalty = 60
			}
			estate_influence = {
				estate = estate_mages
				influence = 50
			}
			custom_trigger_tooltip = {
				tooltip = F30_mage_needs_tt
				has_ruler_flag = enchantment_3
				OR = {
					has_ruler_flag = abjuration_3
					has_ruler_flag = conjuration_3
					has_ruler_flag = divination_3
					has_ruler_flag = evocation_3
					has_ruler_flag = illusion_3
					has_ruler_flag = necromancy_3
					has_ruler_flag = transmutation_3
				}
			}
			OR = {
				has_ruler_modifier = magic_realm_enchantment_charm_impress_foreign_diplomats_3
				has_ruler_modifier = magic_realm_enchantment_charm_inspire_military_3
				has_ruler_modifier = magic_realm_enchantment_charm_assuage_subjects_3
			}
		}
		
		effect = {
			custom_tooltip = F30_deep_warning_tt
			country_event = { id = flavor_kumarkand.54 }
		}
	}

	F30_tranquil_shores = {
		icon = mission_ne_great_lakes_conquest
		required_missions = { F30_calling_deep }
		position = 11

		trigger = {
		NOT = { has_country_modifier = F30_second_onslaught }
			OR = {
				custom_trigger_tooltip = {
					tooltip = F30_onslaught_win_tt
					has_country_flag = F30_won_against_onslaught_rebels
				}
				custom_trigger_tooltip = {
					tooltip = F30_onslaught_lose_tt
					has_country_flag = F30_lost_against_onslaught_rebels
				}
			}
		}
		
		effect = {
			if = {
				limit = {
					has_country_flag = F30_won_against_onslaught_rebels
				}
				clr_country_flag = F30_won_against_onslaught_rebels
				country_event = { id = flavor_kumarkand.60 }
			}
			else_if = {
				limit = {
					has_country_flag = F30_lost_against_onslaught_rebels
				}
				clr_country_flag = F30_lost_against_onslaught_rebels
				add_prestige = -10
			}
		}
	}
}

kumarkand_karqaslu_slot_3 = {
	slot = 3
	generic = no
	ai = yes
	potential = {
		OR = {
			tag = F30 
			AND = {
				tag = F52 #Surakes
				was_tag = F30 
			}
		}
		is_incident_happened = incident_whisper_shadows
		has_country_flag = F30_karqaslu_mission
	}
	has_country_shield = yes
	
	F30_conquerors_legion = {
		icon = mission_late_janissaries
		required_missions = { F30_crowning_empire }
		position = 9

		provinces_to_highlight = { 
			AND = {
				superregion = bulwar_superregion
				NOT = { base_manpower = 10 }
				NOT = { has_building = soldier_households }
				NOT = { has_manpower_building_trigger = yes }
				trade_goods = grain
				trade_goods = livestock
			}
		}
			
		
		
		trigger = {
			num_of_provinces_owned_or_owned_by_non_sovereign_subjects_with = {
				value = 10	
				base_manpower = 10
				has_manpower_building_trigger = yes
				OR = {
					has_building = soldier_households
					base_manpower = 14
				}
				OR = {
					trade_goods = grain
					trade_goods = livestock
				}
			}
			num_of_mercenaries = 100
		}
		
		effect = {
			custom_tooltip = F30_raners_upgrade_two_tt
			set_country_flag = kumarkand_rangers_three_unlock
		}
	}
	
	F30_first_greatest = {
		icon = mission_sunset
		required_missions = { F30_tranquil_shores F30_conquerors_legion F30_triumphs_empire }
		position = 12

		provinces_to_highlight = { 
			province_id = 591  
			NOT = { development = 40 }
		}
		
		trigger = {
			total_development = 2000
			num_of_cavalry = 100
			591 = {
				development = 40
			}
			all_known_country = {
				NOT = {
					army_size = ROOT
				}
			}
			if = {
				limit = {
					has_country_flag = F30_jadd_empire_path
				}
				mission_completed = F30_ituqattar_resplendent
				mission_completed = F30_riders_sun
			}
		}
		
		effect = {
			country_event = { id = flavor_kumarkand.20 }
			if = {
				limit = { 
					AND = {
					NOT = { exists = F51 } 
					has_country_flag = F30_jadd_empire_path
					}
				}
				change_tag = F51
				hidden_effect = {
					restore_country_name = yes
					override_country_name = kumarkand_karqaslu
					every_owned_province = {
						limit = { is_part_of_hre = yes }
						set_in_empire = no
					}
				}
				set_government_rank = 3
				add_prestige = 50
				if = {
					limit = { has_custom_ideas = no }
					country_event = { id = ideagroups.1 } #Swap Ideas
				}
				set_country_flag = formed_jadd_empire_flag
				swap_non_generic_missions = yes
				bulwar_superregion = {
				limit = { NOT = { owned_by = ROOT is_core = ROOT } }
				add_permanent_claim = ROOT
				}
				add_country_modifier = {
					name = "centralization_modifier"
					duration = 7300
				}
			}
		}
	}
}

kumarkand_karqaslu_slot_4 = {
	slot = 4
	generic = no
	ai = yes
	potential = {
		OR = {
			tag = F30 
			AND = {
				tag = F52 #Surakes
				was_tag = F30 
			}
		}
		is_incident_happened = incident_whisper_shadows
		has_country_flag = F30_karqaslu_mission
	}
	has_country_shield = yes
	
	F30_emperors_vengeance = {
		icon = mission_levantine_restoration
		required_missions = { F30_crowning_empire }
		position = 9
		
		trigger = {
			manpower_percentage = 0.9
			OR = {
				custom_trigger_tooltip = {
					tooltip = F30_over_force_limit_tt
					army_size_percentage = 1.01
				}
				army_size = 150
			}
			num_of_owned_provinces_with = {
				value = 15
				has_manpower_building_trigger = yes
			}
			num_of_owned_provinces_with = {
				value = 10
				has_forcelimit_building_trigger = yes
			}
			num_of_owned_provinces_with = {
				value = 5
				OR = {
					has_building = soldier_households
					has_building = ramparts
				}
			}
		}
		
		effect = {
			kheterata_region = {
				add_permanent_claim = ROOT
			}
		}	
	}
	
	F30_elikhets_nightmare = {
		icon = mission_torch_fire
		required_missions = { F30_emperors_vengeance }
		position = 10

		provinces_to_highlight = { 
			region = kheterata_region
			NOT = { country_or_non_sovereign_subject_holds = ROOT }
		}
		
		trigger = {
			kheterata_region = {
				type = all
				country_or_non_sovereign_subject_holds = ROOT
			}
		}
		
		effect = {
			country_event = { id = flavor_kumarkand.19 }
		}
	}
	
	F30_triumphs_empire = {
		icon = mission_egyptian_mamluk_soldier
		required_missions = { F30_elikhets_nightmare }
		position = 11

		provinces_to_highlight = { 
			
		}
		
		trigger = {
			num_of_owned_provinces_with = {
				value = 30
				has_province_modifier = F30_farming_level_two
				base_production = 9
				base_manpower = 6
				if = {
					limit = {
						has_dlc = "Mandate of Heaven"
					}
					is_prosperous = yes
				}
			}
		}
		
		effect = {
			random_owned_province = {
				limit = { superregion = bulwar_superregion }
				random_list = {
					10 = {
						add_elven_minority_size_effect = yes
					}
					10 = {
						add_halfling_minority_size_effect = yes
					}
					10 = {
						add_human_minority_size_effect = yes
					}
					10 = {
						add_dwarven_minority_size_effect = yes
					}
					10 = {
						add_harpy_minority_size_effect = yes
					}
				}
				if = {
					limit = {
						religion = the_jadd
					}
					random_list = {
						10 = {
							add_goblin_minority_size_effect = yes
						}
						10 = {
							add_gnollish_minority_size_effect = yes
						}
					}
				}
				custom_tooltip = F30_farming_three_unlock_tt
			}
		}
	}
}

kumarkand_karqaslu_slot_5 = {
	slot = 5
	generic = no
	ai = yes
	potential = {
		OR = {
			tag = F30 
			AND = {
				tag = F52 #Surakes
				was_tag = F30 
			}
		}
		is_incident_happened = incident_whisper_shadows
		has_country_flag = F30_karqaslu_mission
	}
	has_country_shield = yes
	
	F30_riders_sun = {
		icon = mission_desert_rider
		required_missions = { F30_emperors_vengeance }
		position = 10

		provinces_to_highlight = { 
			AND = {
				province_id = 591
				NOT = {	cavalry_in_province = 120 }
			}
		}
		
		trigger = {
			591 = {
				cavalry_in_province = 120
			}
			num_of_owned_provinces_with = {
				value = 10
				OR = {
					has_building = university
					has_building = state_house
				}
			}
			num_of_owned_provinces_with = {
				value = 8
				has_building = mage_tower
			}
			estate_loyalty = {
				estate = estate_mages
				loyalty = 50
			}
			estate_influence = {
				estate = estate_mages
				influence = 40
			}
		#Have a way to check for 3 legendary magic schools here
		}
		
		effect = {
			591 = {
				kill_units = {
					who = owner
					type = cavalry
					amount = 120
				}
			}
			clr_country_flag = unlocked_merc_sarraka_two
			unlock_merc_company = {
				merc_company = merc_sarraka_three
				free_merc = yes
			}
			custom_tooltip = F30_sarraka_info_three_tt
		}
	}
}