
namespace = flavour_busilar

#Ekha events
country_event = {
	id = flavour_busilar.1
	title = flavour_busilar.1.t
	desc = flavour_busilar.1.d
	picture = SONGHAI_RULER_eventPicture

	is_triggered_only = yes

	option = {
		name = flavour_busilar.1.a
		U08 = {
			country_event = {
			id = flavour_ekha.3
			days = 4
			}
		}
	}
	option = {
		name = flavour_busilar.1.b
		ai_chance = { factor = 0 }
		hidden_effect = {
			U08 = {
				country_event = {
					id = flavour_ekha.4
					days = 90
				}
			}
		}
	}
}

country_event = {
	id = flavour_busilar.2
	title = flavour_busilar.2.t
	desc = flavour_busilar.2.d
	picture = GREAT_SPIRIT_CINULAU_eventPicture

	fire_only_once = yes
	is_triggered_only = yes

	trigger = {
		tag = A29
	}

	option = {
		name = flavour_busilar.2.a
		add_country_modifier = {
				name = U08_Ekhasi_patronage
				duration = 1825
		}
		1259 = {
				add_trade_modifier = {
					who = A29
					duration = 1825
					power = 60
					key = A29_favourable_terms
				}
		}
	}
}

country_event = {
	id = flavour_busilar.3
	title = flavour_busilar.3.t
	desc = flavour_busilar.3.d
	picture = GREAT_SPIRIT_CINULAU_eventPicture

	fire_only_once = yes
	is_triggered_only = yes

	option = {
		name = flavour_busilar.3.b
	}
}