
namespace = runefather_worship

#Diety change from button
country_event = {
	id = runefather_worship.1
	title = runefather_worship.1.t
	desc = runefather_worship.1.d
	picture = ARTWORK_eventPicture

	is_triggered_only = yes

	trigger = { religion = runefather_worship }

	immediate = {
		hidden_effect = {
			set_country_flag = runefather_worship_menu_open
		}
	}

	option = { #Clan Shadowhammer
		name = runefather_worship.1.a
		trigger = {
			NOT = {
				OR = {
					tag = H94
					was_tag = H94
				}
			}
		}
		if = {
			limit = {
				NOT = {
					check_variable = {
						which = ClanShadowhammerAllegienceVar
						value = 15
					}
				}
			}
			change_personal_deity = clan_shadowhammer_1
		}
		else_if = {
			limit = {
				check_variable = {
					which = ClanShadowhammerAllegienceVar
					value = 15
				}
				NOT = {
					check_variable = {
						which = ClanShadowhammerAllegienceVar
						value = 45
					}
				}
			}
			change_personal_deity = clan_shadowhammer_2
		}
		else_if = {
			limit = {
				check_variable = {
					which = ClanShadowhammerAllegienceVar
					value = 45
				}
				NOT = {
					check_variable = {
						which = ClanShadowhammerAllegienceVar
						value = 90
					}
				}
			}
			change_personal_deity = clan_shadowhammer_3
		}
		else_if = {
			limit = {
				check_variable = {
					which = ClanShadowhammerAllegienceVar
					value = 90
				}
				NOT = {
					check_variable = {
						which = ClanShadowhammerAllegienceVar
						value = 150
					}
				}
			}
			change_personal_deity = clan_shadowhammer_4
		}
		else_if = {
			limit = {
				check_variable = {
					which = ClanShadowhammerAllegienceVar
					value = 150
				}
			}
			change_personal_deity = clan_shadowhammer_5
		}
	}
	option = { #Clan Darkstone
		name = runefather_worship.1.b
		trigger = {
			NOT = {
				OR = {
					tag = H94
					was_tag = H94
				}
			}
		}
		if = {
			limit = {
				NOT = {
					check_variable = {
						which = ClanDarkstoneAllegienceVar
						value = 15
					}
				}
			}
			change_personal_deity = clan_darkstone_1
		}
		else_if = {
			limit = {
				check_variable = {
					which = ClanDarkstoneAllegienceVar
					value = 15
				}
				NOT = {
					check_variable = {
						which = ClanDarkstoneAllegienceVar
						value = 45
					}
				}
			}
			change_personal_deity = clan_darkstone_2
		}
		else_if = {
			limit = {
				check_variable = {
					which = ClanDarkstoneAllegienceVar
					value = 45
				}
				NOT = {
					check_variable = {
						which = ClanDarkstoneAllegienceVar
						value = 90
					}
				}
			}
			change_personal_deity = clan_darkstone_3
		}
		else_if = {
			limit = {
				check_variable = {
					which = ClanDarkstoneAllegienceVar
					value = 90
				}
				NOT = {
					check_variable = {
						which = ClanDarkstoneAllegienceVar
						value = 150
					}
				}
			}
			change_personal_deity = clan_darkstone_4
		}
		else_if = {
			limit = {
				check_variable = {
					which = ClanDarkstoneAllegienceVar
					value = 150
				}
			}
			change_personal_deity = clan_darkstone_5
		}
	}
	option = { #Groedi-az-An
		name = runefather_worship.1.c
		trigger = {
			NOT = {
				OR = {
					tag = H94
					was_tag = H94
				}
			}
		}
		if = {
			limit = {
				NOT = {
					check_variable = {
						which = GroediAzAnAllegienceVar
						value = 15
					}
				}
			}
			change_personal_deity = groedi_az_an_1
		}
		else_if = {
			limit = {
				check_variable = {
					which = GroediAzAnAllegienceVar
					value = 15
				}
				NOT = {
					check_variable = {
						which = GroediAzAnAllegienceVar
						value = 45
					}
				}
			}
			change_personal_deity = groedi_az_an_2
		}
		else_if = {
			limit = {
				check_variable = {
					which = GroediAzAnAllegienceVar
					value = 45
				}
				NOT = {
					check_variable = {
						which = GroediAzAnAllegienceVar
						value = 90
					}
				}
			}
			change_personal_deity = groedi_az_an_3
		}
		else_if = {
			limit = {
				check_variable = {
					which = GroediAzAnAllegienceVar
					value = 90
				}
				NOT = {
					check_variable = {
						which = GroediAzAnAllegienceVar
						value = 150
					}
				}
			}
			change_personal_deity = groedi_az_an_4
		}
		else_if = {
			limit = {
				check_variable = {
					which = GroediAzAnAllegienceVar
					value = 150
				}
			}
			change_personal_deity = groedi_az_an_5
		}
	}
	option = { #Amlruzskappa
		name = runefather_worship.1.1
		trigger = {
			NOT = {
				OR = {
					tag = H94
					was_tag = H94
				}
			}
		}
		if = {
			limit = {
				NOT = {
					check_variable = {
						which = AmlruzskappaAllegienceVar
						value = 15
					}
				}
			}
			change_personal_deity = amlruzskappa_1
		}
		else_if = {
			limit = {
				check_variable = {
					which = AmlruzskappaAllegienceVar
					value = 15
				}
				NOT = {
					check_variable = {
						which = AmlruzskappaAllegienceVar
						value = 45
					}
				}
			}
			change_personal_deity = amlruzskappa_2
		}
		else_if = {
			limit = {
				check_variable = {
					which = AmlruzskappaAllegienceVar
					value = 45
				}
				NOT = {
					check_variable = {
						which = AmlruzskappaAllegienceVar
						value = 90
					}
				}
			}
			change_personal_deity = amlruzskappa_3
		}
		else_if = {
			limit = {
				check_variable = {
					which = AmlruzskappaAllegienceVar
					value = 90
				}
				NOT = {
					check_variable = {
						which = AmlruzskappaAllegienceVar
						value = 150
					}
				}
			}
			change_personal_deity = amlruzskappa_4
		}
		else_if = {
			limit = {
				check_variable = {
					which = AmlruzskappaAllegienceVar
					value = 150
				}
			}
			change_personal_deity = amlruzskappa_5
		}
	}
	option = { #Furdanhund
		name = runefather_worship.1.e
		trigger = {
			NOT = {
				OR = {
					tag = H94
					was_tag = H94
				}
			}
		}
		if = {
			limit = {
				NOT = {
					check_variable = {
						which = FurdanhundAllegienceVar
						value = 15
					}
				}
			}
			change_personal_deity = furdanhund_1
		}
		else_if = {
			limit = {
				check_variable = {
					which = FurdanhundAllegienceVar
					value = 15
				}
				NOT = {
					check_variable = {
						which = FurdanhundAllegienceVar
						value = 45
					}
				}
			}
			change_personal_deity = furdanhund_2
		}
		else_if = {
			limit = {
				check_variable = {
					which = FurdanhundAllegienceVar
					value = 45
				}
				NOT = {
					check_variable = {
						which = FurdanhundAllegienceVar
						value = 90
					}
				}
			}
			change_personal_deity = furdanhund_3
		}
		else_if = {
			limit = {
				check_variable = {
					which = FurdanhundAllegienceVar
					value = 90
				}
				NOT = {
					check_variable = {
						which = FurdanhundAllegienceVar
						value = 150
					}
				}
			}
			change_personal_deity = furdanhund_4
		}
		else_if = {
			limit = {
				check_variable = {
					which = FurdanhundAllegienceVar
					value = 150
				}
			}
			change_personal_deity = furdanhund_5
		}
	}
	option = { #Runefathers Might
		name = runefather_worship.1.g
		trigger = {
			NOT = {
				OR = {
					tag = H94
					was_tag = H94
				}
			}
		}
		if = {
			limit = {
				NOT = {
					check_variable = {
						which = RunefatherAllegienceVar
						value = 100
					}
				}
			}
			change_personal_deity = runefathers_might_1
		}
		else_if = {
			limit = {
				check_variable = {
					which = RunefatherAllegienceVar
					value = 100
				}
				NOT = {
					check_variable = {
						which = RunefatherAllegienceVar
						value = 250
					}
				}
			}
			change_personal_deity = runefathers_might_2
		}
		else_if = {
			limit = {
				check_variable = {
					which = RunefatherAllegienceVar
					value = 250
				}
				NOT = {
					check_variable = {
						which = RunefatherAllegienceVar
						value = 400
					}
				}
			}
			change_personal_deity = runefathers_might_3
		}
		else_if = {
			limit = {
				check_variable = {
					which = RunefatherAllegienceVar
					value = 400
				}
				NOT = {
					check_variable = {
						which = RunefatherAllegienceVar
						value = 750
					}
				}
			}
			change_personal_deity = runefathers_might_4
		}
		else_if = {
			limit = {
				check_variable = {
					which = RunefatherAllegienceVar
					value = 750
				}
			}
			change_personal_deity = runefathers_might_5
		}
	}
	option = { #Runefathers Mercy
		name = runefather_worship.1.h
		trigger = {
			NOT = {
				OR = {
					tag = H94
					was_tag = H94
				}
			}
		}
		if = {
			limit = {
				NOT = {
					check_variable = {
						which = RunefatherAllegienceVar
						value = 100
					}
				}
			}
			change_personal_deity = runefathers_mercy_1
		}
		else_if = {
			limit = {
				check_variable = {
					which = RunefatherAllegienceVar
					value = 100
				}
				NOT = {
					check_variable = {
						which = RunefatherAllegienceVar
						value = 250
					}
				}
			}
			change_personal_deity = runefathers_mercy_2
		}
		else_if = {
			limit = {
				check_variable = {
					which = RunefatherAllegienceVar
					value = 250
				}
				NOT = {
					check_variable = {
						which = RunefatherAllegienceVar
						value = 400
					}
				}
			}
			change_personal_deity = runefathers_mercy_3
		}
		else_if = {
			limit = {
				check_variable = {
					which = RunefatherAllegienceVar
					value = 400
				}
				NOT = {
					check_variable = {
						which = RunefatherAllegienceVar
						value = 750
					}
				}
			}
			change_personal_deity = runefathers_mercy_4
		}
		else_if = {
			limit = {
				check_variable = {
					which = RunefatherAllegienceVar
					value = 750
				}
			}
			change_personal_deity = runefathers_mercy_5
		}
	}
	option = { #Runefathers Majesty
		name = runefather_worship.1.i
		trigger = {
			NOT = {
				OR = {
					tag = H94
					was_tag = H94
				}
			}
		}
		if = {
			limit = {
				NOT = {
					check_variable = {
						which = RunefatherAllegienceVar
						value = 100
					}
				}
			}
			change_personal_deity = runefathers_majesty_1
		}
		else_if = {
			limit = {
				check_variable = {
					which = RunefatherAllegienceVar
					value = 100
				}
				NOT = {
					check_variable = {
						which = RunefatherAllegienceVar
						value = 250
					}
				}
			}
			change_personal_deity = runefathers_majesty_2
		}
		else_if = {
			limit = {
				check_variable = {
					which = RunefatherAllegienceVar
					value = 250
				}
				NOT = {
					check_variable = {
						which = RunefatherAllegienceVar
						value = 400
					}
				}
			}
			change_personal_deity = runefathers_majesty_3
		}
		else_if = {
			limit = {
				check_variable = {
					which = RunefatherAllegienceVar
					value = 400
				}
				NOT = {
					check_variable = {
						which = RunefatherAllegienceVar
						value = 750
					}
				}
			}
			change_personal_deity = runefathers_majesty_4
		}
		else_if = {
			limit = {
				check_variable = {
					which = RunefatherAllegienceVar
					value = 750
				}
			}
			change_personal_deity = runefathers_majesty_5
		}
	}
	after = {
		hidden_effect = {
			clr_country_flag = runefather_worship_menu_open
		}
	}
}

#Diety upgrading
country_event = {
	id = runefather_worship.2
	title = runefather_worship.2.t
	desc = runefather_worship.2.d
	picture = ARTWORK_eventPicture

	is_triggered_only = yes

	hidden = yes

	trigger = { religion = runefather_worship }

	option = { #Clan Shadowhammer
		name = runefather_worship.2.a
		trigger = {
			OR = {
				has_personal_deity = clan_shadowhammer_1
				has_personal_deity = clan_shadowhammer_2
				has_personal_deity = clan_shadowhammer_3
				has_personal_deity = clan_shadowhammer_4
				has_personal_deity = clan_shadowhammer_5
			}
		}
		if = {
			limit = {
				NOT = { has_personal_deity = clan_shadowhammer_5 }
				check_variable = {
					which = ClanShadowhammerAllegienceVar
					value = 150
				}
			}
			change_personal_deity = clan_shadowhammer_5
		}
		else_if = {
			limit = {
				NOT = { has_personal_deity = clan_shadowhammer_4 }
				check_variable = {
					which = ClanShadowhammerAllegienceVar
					value = 90
				}
			}
			change_personal_deity = clan_shadowhammer_4
		}
		else_if = {
			limit = {
				NOT = { has_personal_deity = clan_shadowhammer_3 }
				check_variable = {
					which = ClanShadowhammerAllegienceVar
					value = 45
				}
			}
			change_personal_deity = clan_shadowhammer_3
		}
		else_if = {
			limit = {
				NOT = { has_personal_deity = clan_shadowhammer_2 }
				check_variable = {
					which = ClanShadowhammerAllegienceVar
					value = 15
				}
			}
			change_personal_deity = clan_shadowhammer_2
		}
		else_if = {
			limit = {
				NOT = { has_personal_deity = clan_shadowhammer_1 }
			}
			change_personal_deity = clan_shadowhammer_1
		}
	}
	option = { #Clan Darkstone
		name = runefather_worship.2.b
		trigger = {
			OR = {
				has_personal_deity = clan_darkstone_1
				has_personal_deity = clan_darkstone_2
				has_personal_deity = clan_darkstone_3
				has_personal_deity = clan_darkstone_4
				has_personal_deity = clan_darkstone_5
			}
		}
		if = {
			limit = {
				NOT = { has_personal_deity = clan_darkstone_5 }
				check_variable = {
					which = ClanDarkstoneAllegienceVar
					value = 150
				}
			}
			change_personal_deity = clan_darkstone_5
		}
		else_if = {
			limit = {
				NOT = { has_personal_deity = clan_darkstone_4 }
				check_variable = {
					which = ClanDarkstoneAllegienceVar
					value = 90
				}
			}
			change_personal_deity = clan_darkstone_4
		}
		else_if = {
			limit = {
				NOT = { has_personal_deity = clan_darkstone_3 }
				check_variable = {
					which = ClanDarkstoneAllegienceVar
					value = 45
				}
			}
			change_personal_deity = clan_darkstone_3
		}
		else_if = {
			limit = {
				NOT = { has_personal_deity = clan_darkstone_2 }
				check_variable = {
					which = ClanDarkstoneAllegienceVar
					value = 15
				}
			}
			change_personal_deity = clan_darkstone_2
		}
		else_if = {
			limit = {
				NOT = { has_personal_deity = clan_darkstone_1 }
			}
			change_personal_deity = clan_darkstone_1
		}
	}
	option = { #Groedi-az-An
		name = runefather_worship.2.c
		trigger = {
			OR = {
				has_personal_deity = groedi_az_an_1
				has_personal_deity = groedi_az_an_2
				has_personal_deity = groedi_az_an_3
				has_personal_deity = groedi_az_an_4
				has_personal_deity = groedi_az_an_5
			}
		}
		if = {
			limit = {
				NOT = { has_personal_deity = groedi_az_an_5 }
				check_variable = {
					which = GroediAzAnAllegienceVar
					value = 150
				}
			}
			change_personal_deity = groedi_az_an_5
		}
		else_if = {
			limit = {
				NOT = { has_personal_deity = groedi_az_an_4 }
				check_variable = {
					which = GroediAzAnAllegienceVar
					value = 90
				}
			}
			change_personal_deity = groedi_az_an_4
		}
		else_if = {
			limit = {
				NOT = { has_personal_deity = groedi_az_an_3 }
				check_variable = {
					which = GroediAzAnAllegienceVar
					value = 45
				}
			}
			change_personal_deity = groedi_az_an_3
		}
		else_if = {
			limit = {
				NOT = { has_personal_deity = groedi_az_an_2 }
				check_variable = {
					which = GroediAzAnAllegienceVar
					value = 15
				}
			}
			change_personal_deity = groedi_az_an_2
		}
		else_if = {
			limit = {
				NOT = { has_personal_deity = groedi_az_an_1 }
			}
			change_personal_deity = groedi_az_an_1
		}
	}
	option = { #Amlruzskappa
		name = runefather_worship.2.1
		trigger = {
			OR = {
				has_personal_deity = amlruzskappa_1
				has_personal_deity = amlruzskappa_2
				has_personal_deity = amlruzskappa_3
				has_personal_deity = amlruzskappa_4
				has_personal_deity = amlruzskappa_5
			}
		}
		if = {
			limit = {
				NOT = { has_personal_deity = amlruzskappa_5 }
				check_variable = {
					which = AmlruzskappaAllegienceVar
					value = 150
				}
			}
			change_personal_deity = amlruzskappa_5
		}
		else_if = {
			limit = {
				NOT = { has_personal_deity = amlruzskappa_4 }
				check_variable = {
					which = AmlruzskappaAllegienceVar
					value = 90
				}
			}
			change_personal_deity = amlruzskappa_4
		}
		else_if = {
			limit = {
				NOT = { has_personal_deity = amlruzskappa_3 }
				check_variable = {
					which = AmlruzskappaAllegienceVar
					value = 45
				}
			}
			change_personal_deity = amlruzskappa_3
		}
		else_if = {
			limit = {
				NOT = { has_personal_deity = amlruzskappa_2 }
				check_variable = {
					which = AmlruzskappaAllegienceVar
					value = 15
				}
			}
			change_personal_deity = amlruzskappa_2
		}
		else_if = {
			limit = {
				NOT = { has_personal_deity = amlruzskappa_1 }
			}
			change_personal_deity = amlruzskappa_1
		}
	}
	option = { #Furdanhund
		name = runefather_worship.2.e
		trigger = {
			OR = {
				has_personal_deity = furdanhund_1
				has_personal_deity = furdanhund_2
				has_personal_deity = furdanhund_3
				has_personal_deity = furdanhund_4
				has_personal_deity = furdanhund_5
			}
		}
		if = {
			limit = {
				NOT = { has_personal_deity = furdanhund_5 }
				check_variable = {
					which = FurdanhundAllegienceVar
					value = 150
				}
			}
			change_personal_deity = furdanhund_5
		}
		else_if = {
			limit = {
				NOT = { has_personal_deity = furdanhundr_4 }
				check_variable = {
					which = FurdanhundAllegienceVar
					value = 90
				}
			}
			change_personal_deity = furdanhund_4
		}
		else_if = {
			limit = {
				NOT = { has_personal_deity = furdanhund_3 }
				check_variable = {
					which = FurdanhundAllegienceVar
					value = 45
				}
			}
			change_personal_deity = furdanhund_3
		}
		else_if = {
			limit = {
				NOT = { has_personal_deity = furdanhund_2 }
				check_variable = {
					which = FurdanhundAllegienceVar
					value = 15
				}
			}
			change_personal_deity = furdanhund_2
		}
		else_if = {
			limit = {
				NOT = { has_personal_deity = furdanhund_1 }
			}
			change_personal_deity = furdanhund_1
		}
	}
	option = { #Runefathers Might
		name = runefather_worship.2.f
		trigger = {
			OR = {
				has_personal_deity = runefathers_might_1
				has_personal_deity = runefathers_might_2
				has_personal_deity = runefathers_might_3
				has_personal_deity = runefathers_might_4
				has_personal_deity = runefathers_might_5
			}
		}
		if = {
			limit = {
				NOT = { has_personal_deity = runefathers_might_5 }
				check_variable = {
					which = RunefatherAllegienceVar
					value = 750
				}
			}
			change_personal_deity = runefathers_might_5
		}
		else_if = {
			limit = {
				NOT = { has_personal_deity = runefathers_might_4 }
				check_variable = {
					which = RunefatherAllegienceVar
					value = 400
				}
			}
			change_personal_deity = runefathers_might_4
		}
		else_if = {
			limit = {
				NOT = { has_personal_deity = runefathers_might_3 }
				check_variable = {
					which = RunefatherAllegienceVar
					value = 250
				}
			}
			change_personal_deity = runefathers_might_3
		}
		else_if = {
			limit = {
				NOT = { has_personal_deity = runefathers_might_2 }
				check_variable = {
					which = RunefatherAllegienceVar
					value = 100
				}
			}
			change_personal_deity = runefathers_might_2
		}
		else_if = {
			limit = {
				NOT = { has_personal_deity = runefathers_might_1 }
			}
			change_personal_deity = runefathers_might_1
		}
	}
	option = { #Runefathers Mercy
		name = runefather_worship.2.g
		trigger = {
			OR = {
				has_personal_deity = runefathers_mercy_1
				has_personal_deity = runefathers_mercy_2
				has_personal_deity = runefathers_mercy_3
				has_personal_deity = runefathers_mercy_4
				has_personal_deity = runefathers_mercy_5
			}
		}
		if = {
			limit = {
				NOT = { has_personal_deity = runefathers_mercy_5 }
				check_variable = {
					which = RunefatherAllegienceVar
					value = 750
				}
			}
			change_personal_deity = runefathers_mercy_5
		}
		else_if = {
			limit = {
				NOT = { has_personal_deity = runefathers_mercy_4 }
				check_variable = {
					which = RunefatherAllegienceVar
					value = 400
				}
			}
			change_personal_deity = runefathers_mercy_4
		}
		else_if = {
			limit = {
				NOT = { has_personal_deity = runefathers_mercy_3 }
				check_variable = {
					which = RunefatherAllegienceVar
					value = 250
				}
			}
			change_personal_deity = runefathers_mercy_3
		}
		else_if = {
			limit = {
				NOT = { has_personal_deity = runefathers_mercy_2 }
				check_variable = {
					which = RunefatherAllegienceVar
					value = 100
				}
			}
			change_personal_deity = runefathers_mercy_2
		}
		else_if = {
			limit = {
				NOT = { has_personal_deity = runefathers_mercy_1 }
			}
			change_personal_deity = runefathers_mercy_1
		}
	}
	option = { #Runefathers Majesty
		name = runefather_worship.2.h
		trigger = {
			OR = {
				has_personal_deity = runefathers_majesty_1
				has_personal_deity = runefathers_majesty_2
				has_personal_deity = runefathers_majesty_3
				has_personal_deity = runefathers_majesty_4
				has_personal_deity = runefathers_majesty_5
			}
		}
		if = {
			limit = {
				NOT = { has_personal_deity = runefathers_majesty_5 }
				check_variable = {
					which = RunefatherAllegienceVar
					value = 750
				}
			}
			change_personal_deity = runefathers_majesty_5
		}
		else_if = {
			limit = {
				NOT = { has_personal_deity = runefathers_majesty_4 }
				check_variable = {
					which = RunefatherAllegienceVar
					value = 400
				}
			}
			change_personal_deity = runefathers_majesty_4
		}
		else_if = {
			limit = {
				NOT = { has_personal_deity = runefathers_majesty_3 }
				check_variable = {
					which = RunefatherAllegienceVar
					value = 250
				}
			}
			change_personal_deity = runefathers_majesty_3
		}
		else_if = {
			limit = {
				NOT = { has_personal_deity = runefathers_majesty_2 }
				check_variable = {
					which = RunefatherAllegienceVar
					value = 100
				}
			}
			change_personal_deity = runefathers_majesty_2
		}
		else_if = {
			limit = {
				NOT = { has_personal_deity = runefathers_majesty_1 }
			}
			change_personal_deity = runefathers_majesty_1
		}
	}
}